…
v6 Make use of v6 visits version race/ethnicity already comes collapsed
into race2 field

v7 Drop NHPI \<20 participants

v8 Health insurance info collapsed and added

v9 code clean up

# Insurance

Insurance info comes from a survey instead of EHR. We need to
pre-process and join to each patient.

    ## # A tibble: 18,931 × 2
    ##    person_id     n
    ##        <int> <int>
    ##  1   1000109     1
    ##  2   1000151     2
    ##  3   1000185     2
    ##  4   1000234     1
    ##  5   1000396     2
    ##  6   1000612     1
    ##  7   1000709     1
    ##  8   1000724     2
    ##  9   1000843     1
    ## 10   1000955     1
    ## # ℹ 18,921 more rows
…
